%!PS-Adobe-1.0
%%EndComments
save 50 dict begin /psplot exch def
/StartPSPlot
   {newpath 0 0 moveto 0 setlinewidth 0 setgray 1 setlinecap
    1 setlinejoin 72 300 div dup scale}def
/pending {false} def
/finish {pending {currentpoint stroke moveto /pending false def} if} def
/r {finish newpath moveto} def
/d {lineto /pending true def} def
/l {finish 4 2 roll moveto lineto currentpoint stroke moveto} def
/p {finish newpath moveto currentpoint lineto currentpoint stroke moveto} def
/e {finish gsave showpage grestore newpath 0 0 moveto} def
/lw {finish setlinewidth} def
/lt0 {finish [] 0 setdash} def
/lt1 {finish [3 5] 0 setdash} def
/lt2 {finish [20 10] 0 setdash} def
/lt3 {finish [60 10] 0 setdash} def
/lt4 {finish [3 10 20 10] 0 setdash} def
/lt5 {finish [3 10 60 10] 0 setdash} def
/lt6 {finish [20 10 60 10] 0 setdash} def
/EndPSPlot {clear psplot end restore}def
% end fixed prolog
StartPSPlot
%%EndProlog
%%Page: 1 1
   2 lw lt0  500  500 r 2300  500 d  500  500 r  500  542 d  556  500 r
  556  542 d  613  500 r  613  583 d  669  500 r  669  542 d  725  500 r
  725  542 d  781  500 r  781  542 d  838  500 r  838  542 d  894  500 r
  894  583 d  950  500 r  950  542 d 1006  500 r 1006  542 d 1063  500 r
 1063  542 d 1119  500 r 1119  542 d 1175  500 r 1175  583 d 1231  500 r
 1231  542 d 1288  500 r 1288  542 d 1344  500 r 1344  542 d 1400  500 r
 1400  542 d 1456  500 r 1456  583 d 1512  500 r 1512  542 d 1569  500 r
 1569  542 d 1625  500 r 1625  542 d 1681  500 r 1681  542 d 1737  500 r
 1737  583 d 1794  500 r 1794  542 d 1850  500 r 1850  542 d 1906  500 r
 1906  542 d 1962  500 r 1962  542 d 2019  500 r 2019  583 d 2075  500 r
 2075  542 d 2131  500 r 2131  542 d 2187  500 r 2187  542 d 2244  500 r
 2244  542 d 2300  500 r 2300  583 d  525  438 r  530  440 d  538  448 d
  538  394 d  603  430 r  600  422 d  595  417 d  587  414 d  584  414 d
  577  417 d  571  422 d  569  430 d  569  433 d  571  440 d  577  446 d
  584  448 d  587  448 d  595  446 d  600  440 d  603  430 d  603  417 d
  600  404 d  595  396 d  587  394 d  582  394 d  574  396 d  571  401 d
  657  448 r  631  394 d  621  448 r  657  448 d  704  448 r  678  448 d
  675  425 d  678  427 d  686  430 d  694  430 d  701  427 d  707  422 d
  709  414 d  709  409 d  707  401 d  701  396 d  694  394 d  686  394 d
  678  396 d  675  399 d  673  404 d  806  438 r  811  440 d  819  448 d
  819  394 d  884  430 r  881  422 d  876  417 d  868  414 d  865  414 d
  858  417 d  852  422 d  850  430 d  850  433 d  852  440 d  858  446 d
  865  448 d  868  448 d  876  446 d  881  440 d  884  430 d  884  417 d
  881  404 d  876  396 d  868  394 d  863  394 d  855  396 d  852  401 d
  915  448 r  907  446 d  904  440 d  904  435 d  907  430 d  912  427 d
  923  425 d  930  422 d  936  417 d  938  412 d  938  404 d  936  399 d
  933  396 d  925  394 d  915  394 d  907  396 d  904  399 d  902  404 d
  902  412 d  904  417 d  910  422 d  917  425 d  928  427 d  933  430 d
  936  435 d  936  440 d  933  446 d  925  448 d  915  448 d  969  448 r
  962  446 d  956  438 d  954  425 d  954  417 d  956  404 d  962  396 d
  969  394 d  975  394 d  982  396 d  988  404 d  990  417 d  990  425 d
  988  438 d  982  446 d  975  448 d  969  448 d 1087  438 r 1092  440 d
 1100  448 d 1100  394 d 1165  430 r 1162  422 d 1157  417 d 1149  414 d
 1146  414 d 1139  417 d 1133  422 d 1131  430 d 1131  433 d 1133  440 d
 1139  446 d 1146  448 d 1149  448 d 1157  446 d 1162  440 d 1165  430 d
 1165  417 d 1162  404 d 1157  396 d 1149  394 d 1144  394 d 1136  396 d
 1133  401 d 1196  448 r 1188  446 d 1185  440 d 1185  435 d 1188  430 d
 1193  427 d 1204  425 d 1211  422 d 1217  417 d 1219  412 d 1219  404 d
 1217  399 d 1214  396 d 1206  394 d 1196  394 d 1188  396 d 1185  399 d
 1183  404 d 1183  412 d 1185  417 d 1191  422 d 1198  425 d 1209  427 d
 1214  430 d 1217  435 d 1217  440 d 1214  446 d 1206  448 d 1196  448 d
 1266  448 r 1240  448 d 1237  425 d 1240  427 d 1248  430 d 1256  430 d
 1263  427 d 1269  422 d 1271  414 d 1271  409 d 1269  401 d 1263  396 d
 1256  394 d 1248  394 d 1240  396 d 1237  399 d 1235  404 d 1368  438 r
 1373  440 d 1381  448 d 1381  394 d 1446  430 r 1443  422 d 1438  417 d
 1430  414 d 1427  414 d 1420  417 d 1414  422 d 1412  430 d 1412  433 d
 1414  440 d 1420  446 d 1427  448 d 1430  448 d 1438  446 d 1443  440 d
 1446  430 d 1446  417 d 1443  404 d 1438  396 d 1430  394 d 1425  394 d
 1417  396 d 1414  401 d 1498  430 r 1495  422 d 1490  417 d 1482  414 d
 1479  414 d 1472  417 d 1466  422 d 1464  430 d 1464  433 d 1466  440 d
 1472  446 d 1479  448 d 1482  448 d 1490  446 d 1495  440 d 1498  430 d
 1498  417 d 1495  404 d 1490  396 d 1482  394 d 1477  394 d 1469  396 d
 1466  401 d 1531  448 r 1524  446 d 1518  438 d 1516  425 d 1516  417 d
 1518  404 d 1524  396 d 1531  394 d 1537  394 d 1544  396 d 1550  404 d
 1552  417 d 1552  425 d 1550  438 d 1544  446 d 1537  448 d 1531  448 d
 1649  438 r 1654  440 d 1662  448 d 1662  394 d 1727  430 r 1724  422 d
 1719  417 d 1711  414 d 1708  414 d 1701  417 d 1695  422 d 1693  430 d
 1693  433 d 1695  440 d 1701  446 d 1708  448 d 1711  448 d 1719  446 d
 1724  440 d 1727  430 d 1727  417 d 1724  404 d 1719  396 d 1711  394 d
 1706  394 d 1698  396 d 1695  401 d 1779  430 r 1776  422 d 1771  417 d
 1763  414 d 1760  414 d 1753  417 d 1747  422 d 1745  430 d 1745  433 d
 1747  440 d 1753  446 d 1760  448 d 1763  448 d 1771  446 d 1776  440 d
 1779  430 d 1779  417 d 1776  404 d 1771  396 d 1763  394 d 1758  394 d
 1750  396 d 1747  401 d 1828  448 r 1802  448 d 1799  425 d 1802  427 d
 1810  430 d 1818  430 d 1825  427 d 1831  422 d 1833  414 d 1833  409 d
 1831  401 d 1825  396 d 1818  394 d 1810  394 d 1802  396 d 1799  399 d
 1797  404 d 1925  435 r 1925  438 d 1928  443 d 1931  446 d 1936  448 d
 1946  448 d 1951  446 d 1954  443 d 1957  438 d 1957  433 d 1954  427 d
 1949  420 d 1923  394 d 1959  394 d 1990  448 r 1983  446 d 1977  438 d
 1975  425 d 1975  417 d 1977  404 d 1983  396 d 1990  394 d 1996  394 d
 2003  396 d 2009  404 d 2011  417 d 2011  425 d 2009  438 d 2003  446 d
 1996  448 d 1990  448 d 2042  448 r 2035  446 d 2029  438 d 2027  425 d
 2027  417 d 2029  404 d 2035  396 d 2042  394 d 2048  394 d 2055  396 d
 2061  404 d 2063  417 d 2063  425 d 2061  438 d 2055  446 d 2048  448 d
 2042  448 d 2094  448 r 2087  446 d 2081  438 d 2079  425 d 2079  417 d
 2081  404 d 2087  396 d 2094  394 d 2100  394 d 2107  396 d 2113  404 d
 2115  417 d 2115  425 d 2113  438 d 2107  446 d 2100  448 d 2094  448 d
 2206  435 r 2206  438 d 2209  443 d 2212  446 d 2217  448 d 2227  448 d
 2232  446 d 2235  443 d 2238  438 d 2238  433 d 2235  427 d 2230  420 d
 2204  394 d 2240  394 d 2271  448 r 2264  446 d 2258  438 d 2256  425 d
 2256  417 d 2258  404 d 2264  396 d 2271  394 d 2277  394 d 2284  396 d
 2290  404 d 2292  417 d 2292  425 d 2290  438 d 2284  446 d 2277  448 d
 2271  448 d 2323  448 r 2316  446 d 2310  438 d 2308  425 d 2308  417 d
 2310  404 d 2316  396 d 2323  394 d 2329  394 d 2336  396 d 2342  404 d
 2344  417 d 2344  425 d 2342  438 d 2336  446 d 2329  448 d 2323  448 d
 2391  448 r 2365  448 d 2362  425 d 2365  427 d 2373  430 d 2381  430 d
 2388  427 d 2394  422 d 2396  414 d 2396  409 d 2394  401 d 2388  396 d
 2381  394 d 2373  394 d 2365  396 d 2362  399 d 2360  404 d  500 3000 r
 2300 3000 d  500 3000 r  500 2958 d  556 3000 r  556 2958 d  613 3000 r
  613 2917 d  669 3000 r  669 2958 d  725 3000 r  725 2958 d  781 3000 r
  781 2958 d  838 3000 r  838 2958 d  894 3000 r  894 2917 d  950 3000 r
  950 2958 d 1006 3000 r 1006 2958 d 1063 3000 r 1063 2958 d 1119 3000 r
 1119 2958 d 1175 3000 r 1175 2917 d 1231 3000 r 1231 2958 d 1288 3000 r
 1288 2958 d 1344 3000 r 1344 2958 d 1400 3000 r 1400 2958 d 1456 3000 r
 1456 2917 d 1512 3000 r 1512 2958 d 1569 3000 r 1569 2958 d 1625 3000 r
 1625 2958 d 1681 3000 r 1681 2958 d 1737 3000 r 1737 2917 d 1794 3000 r
 1794 2958 d 1850 3000 r 1850 2958 d 1906 3000 r 1906 2958 d 1962 3000 r
 1962 2958 d 2019 3000 r 2019 2917 d 2075 3000 r 2075 2958 d 2131 3000 r
 2131 2958 d 2187 3000 r 2187 2958 d 2244 3000 r 2244 2958 d 2300 3000 r
 2300 2917 d  500  500 r  500 3000 d  500  500 r  583  500 d  500  560 r
  542  560 d  500  619 r  542  619 d  500  679 r  542  679 d  500  738 r
  542  738 d  500  798 r  583  798 d  500  857 r  542  857 d  500  917 r
  542  917 d  500  976 r  542  976 d  500 1036 r  542 1036 d  500 1095 r
  583 1095 d  500 1155 r  542 1155 d  500 1214 r  542 1214 d  500 1274 r
  542 1274 d  500 1333 r  542 1333 d  500 1393 r  583 1393 d  500 1452 r
  542 1452 d  500 1512 r  542 1512 d  500 1571 r  542 1571 d  500 1631 r
  542 1631 d  500 1690 r  583 1690 d  500 1750 r  542 1750 d  500 1810 r
  542 1810 d  500 1869 r  542 1869 d  500 1929 r  542 1929 d  500 1988 r
  583 1988 d  500 2048 r  542 2048 d  500 2107 r  542 2107 d  500 2167 r
  542 2167 d  500 2226 r  542 2226 d  500 2286 r  583 2286 d  500 2345 r
  542 2345 d  500 2405 r  542 2405 d  500 2464 r  542 2464 d  500 2524 r
  542 2524 d  500 2583 r  583 2583 d  500 2643 r  542 2643 d  500 2702 r
  542 2702 d  500 2762 r  542 2762 d  500 2821 r  542 2821 d  500 2881 r
  583 2881 d  500 2940 r  542 2940 d  500 3000 r  542 3000 d  297  500 r
  344  500 d  388  531 r  362  495 d  401  495 d  388  531 r  388  477 d
  430  531 r  422  529 d  417  521 d  414  508 d  414  500 d  417  487 d
  422  479 d  430  477 d  435  477 d  443  479 d  448  487 d  451  500 d
  451  508 d  448  521 d  443  529 d  435  531 d  430  531 d  297  798 r
  344  798 d  368  829 r  396  829 d  381  808 d  388  808 d  394  806 d
  396  803 d  399  795 d  399  790 d  396  782 d  391  777 d  383  775 d
  375  775 d  368  777 d  365  780 d  362  785 d  446  829 r  420  829 d
  417  806 d  420  808 d  427  811 d  435  811 d  443  808 d  448  803 d
  451  795 d  451  790 d  448  782 d  443  777 d  435  775 d  427  775 d
  420  777 d  417  780 d  414  785 d  297 1095 r  344 1095 d  368 1126 r
  396 1126 d  381 1105 d  388 1105 d  394 1103 d  396 1100 d  399 1092 d
  399 1087 d  396 1079 d  391 1074 d  383 1072 d  375 1072 d  368 1074 d
  365 1077 d  362 1082 d  430 1126 r  422 1124 d  417 1116 d  414 1103 d
  414 1095 d  417 1082 d  422 1074 d  430 1072 d  435 1072 d  443 1074 d
  448 1082 d  451 1095 d  451 1103 d  448 1116 d  443 1124 d  435 1126 d
  430 1126 d  297 1393 r  344 1393 d  365 1411 r  365 1414 d  368 1419 d
  370 1422 d  375 1424 d  386 1424 d  391 1422 d  394 1419 d  396 1414 d
  396 1409 d  394 1403 d  388 1396 d  362 1370 d  399 1370 d  446 1424 r
  420 1424 d  417 1401 d  420 1403 d  427 1406 d  435 1406 d  443 1403 d
  448 1398 d  451 1390 d  451 1385 d  448 1377 d  443 1372 d  435 1370 d
  427 1370 d  420 1372 d  417 1375 d  414 1380 d  297 1690 r  344 1690 d
  365 1708 r  365 1711 d  368 1716 d  370 1719 d  375 1721 d  386 1721 d
  391 1719 d  394 1716 d  396 1711 d  396 1706 d  394 1700 d  388 1693 d
  362 1667 d  399 1667 d  430 1721 r  422 1719 d  417 1711 d  414 1698 d
  414 1690 d  417 1677 d  422 1669 d  430 1667 d  435 1667 d  443 1669 d
  448 1677 d  451 1690 d  451 1698 d  448 1711 d  443 1719 d  435 1721 d
  430 1721 d  297 1988 r  344 1988 d  370 2009 r  375 2011 d  383 2019 d
  383 1965 d  446 2019 r  420 2019 d  417 1996 d  420 1998 d  427 2001 d
  435 2001 d  443 1998 d  448 1993 d  451 1985 d  451 1980 d  448 1972 d
  443 1967 d  435 1965 d  427 1965 d  420 1967 d  417 1970 d  414 1975 d
  297 2286 r  344 2286 d  370 2307 r  375 2309 d  383 2317 d  383 2263 d
  430 2317 r  422 2315 d  417 2307 d  414 2294 d  414 2286 d  417 2273 d
  422 2265 d  430 2263 d  435 2263 d  443 2265 d  448 2273 d  451 2286 d
  451 2294 d  448 2307 d  443 2315 d  435 2317 d  430 2317 d  349 2583 r
  396 2583 d  446 2614 r  420 2614 d  417 2591 d  420 2593 d  427 2596 d
  435 2596 d  443 2593 d  448 2588 d  451 2580 d  451 2575 d  448 2567 d
  443 2562 d  435 2560 d  427 2560 d  420 2562 d  417 2565 d  414 2570 d
  429 2912 r  422 2910 d  416 2902 d  414 2889 d  414 2881 d  416 2868 d
  422 2860 d  429 2858 d  435 2858 d  442 2860 d  448 2868 d  450 2881 d
  450 2889 d  448 2902 d  442 2910 d  435 2912 d  429 2912 d 2300  500 r
 2300 3000 d 2300  500 r 2217  500 d 2300  560 r 2258  560 d 2300  619 r
 2258  619 d 2300  679 r 2258  679 d 2300  738 r 2258  738 d 2300  798 r
 2217  798 d 2300  857 r 2258  857 d 2300  917 r 2258  917 d 2300  976 r
 2258  976 d 2300 1036 r 2258 1036 d 2300 1095 r 2217 1095 d 2300 1155 r
 2258 1155 d 2300 1214 r 2258 1214 d 2300 1274 r 2258 1274 d 2300 1333 r
 2258 1333 d 2300 1393 r 2217 1393 d 2300 1452 r 2258 1452 d 2300 1512 r
 2258 1512 d 2300 1571 r 2258 1571 d 2300 1631 r 2258 1631 d 2300 1690 r
 2217 1690 d 2300 1750 r 2258 1750 d 2300 1810 r 2258 1810 d 2300 1869 r
 2258 1869 d 2300 1929 r 2258 1929 d 2300 1988 r 2217 1988 d 2300 2048 r
 2258 2048 d 2300 2107 r 2258 2107 d 2300 2167 r 2258 2167 d 2300 2226 r
 2258 2226 d 2300 2286 r 2217 2286 d 2300 2345 r 2258 2345 d 2300 2405 r
 2258 2405 d 2300 2464 r 2258 2464 d 2300 2524 r 2258 2524 d 2300 2583 r
 2217 2583 d 2300 2643 r 2258 2643 d 2300 2702 r 2258 2702 d 2300 2762 r
 2258 2762 d 2300 2821 r 2258 2821 d 2300 2881 r 2217 2881 d 2300 2940 r
 2258 2940 d 2300 3000 r 2258 3000 d 1315  365 r 1335  339 d 1335  311 d
 1356  365 r 1335  339 d 1367  331 r 1398  331 d 1398  337 d 1395  342 d
 1393  344 d 1387  347 d 1380  347 d 1374  344 d 1369  339 d 1367  331 d
 1367  326 d 1369  318 d 1374  313 d 1380  311 d 1387  311 d 1393  313 d
 1398  318 d 1445  347 r 1445  311 d 1445  339 r 1439  344 d 1434  347 d
 1426  347 d 1421  344 d 1416  339 d 1413  331 d 1413  326 d 1416  318 d
 1421  313 d 1426  311 d 1434  311 d 1439  313 d 1445  318 d 1463  347 r
 1463  311 d 1463  331 r 1465  339 d 1471  344 d 1476  347 d 1484  347 d
  170 1020 r  165 1017 d  159 1012 d  157 1007 d  157  996 d  159  991 d
  165  986 d  170  983 d  178  981 d  191  981 d  198  983 d  204  986 d
  209  991 d  211  996 d  211 1007 d  209 1012 d  204 1017 d  198 1020 d
  175 1035 r  201 1035 d  209 1038 d  211 1043 d  211 1051 d  209 1056 d
  201 1064 d  175 1064 r  211 1064 d  175 1082 r  211 1082 d  185 1082 r
  178 1090 d  175 1095 d  175 1103 d  178 1108 d  185 1111 d  211 1111 d
  185 1111 r  178 1119 d  175 1124 d  175 1132 d  178 1137 d  185 1139 d
  211 1139 d  175 1160 r  201 1160 d  209 1163 d  211 1168 d  211 1176 d
  209 1181 d  201 1189 d  175 1189 r  211 1189 d  157 1207 r  211 1207 d
  175 1256 r  211 1256 d  183 1256 r  178 1251 d  175 1246 d  175 1238 d
  178 1233 d  183 1228 d  191 1225 d  196 1225 d  204 1228 d  209 1233 d
  211 1238 d  211 1246 d  209 1251 d  204 1256 d  157 1277 r  201 1277 d
  209 1280 d  211 1285 d  211 1290 d  175 1269 r  175 1288 d  157 1298 r
  159 1301 d  157 1303 d  154 1301 d  157 1298 d  175 1301 r  211 1301 d
  175 1316 r  211 1332 d  175 1347 r  211 1332 d  191 1360 r  191 1392 d
  185 1392 d  180 1389 d  178 1386 d  175 1381 d  175 1373 d  178 1368 d
  183 1363 d  191 1360 d  196 1360 d  204 1363 d  209 1368 d  211 1373 d
  211 1381 d  209 1386 d  204 1392 d  183 1477 r  178 1475 d  175 1467 d
  175 1459 d  178 1451 d  183 1449 d  188 1451 d  191 1457 d  193 1470 d
  196 1475 d  201 1477 d  204 1477 d  209 1475 d  211 1467 d  211 1459 d
  209 1451 d  204 1449 d  157 1493 r  211 1493 d  185 1493 r  178 1501 d
  175 1506 d  175 1514 d  178 1519 d  185 1522 d  211 1522 d  157 1537 r
  159 1540 d  157 1542 d  154 1540 d  157 1537 d  175 1540 r  211 1540 d
  157 1576 r  157 1571 d  159 1566 d  167 1563 d  211 1563 d  175 1555 r
  175 1574 d  157 1589 r  201 1589 d  209 1592 d  211 1597 d  211 1602 d
  175 1581 r  175 1600 d  175 1665 r  178 1659 d  183 1654 d  191 1652 d
  196 1652 d  204 1654 d  209 1659 d  211 1665 d  211 1672 d  209 1678 d
  204 1683 d  196 1685 d  191 1685 d  183 1683 d  178 1678 d  175 1672 d
  175 1665 d  157 1717 r  157 1711 d  159 1706 d  167 1704 d  211 1704 d
  175 1696 r  175 1714 d  175 1769 r  230 1769 d  183 1769 r  178 1774 d
  175 1779 d  175 1787 d  178 1792 d  183 1797 d  191 1800 d  196 1800 d
  204 1797 d  209 1792 d  211 1787 d  211 1779 d  209 1774 d  204 1769 d
  191 1818 r  191 1849 d  185 1849 d  180 1847 d  178 1844 d  175 1839 d
  175 1831 d  178 1826 d  183 1821 d  191 1818 d  196 1818 d  204 1821 d
  209 1826 d  211 1831 d  211 1839 d  209 1844 d  204 1849 d  175 1867 r
  211 1867 d  191 1867 r  183 1870 d  178 1875 d  175 1880 d  175 1888 d
  157 1901 r  159 1904 d  157 1906 d  154 1904 d  157 1901 d  175 1904 r
  211 1904 d  175 1953 r  211 1953 d  183 1953 r  178 1948 d  175 1943 d
  175 1935 d  178 1930 d  183 1925 d  191 1922 d  196 1922 d  204 1925 d
  209 1930 d  211 1935 d  211 1943 d  209 1948 d  204 1953 d  183 1997 r
  178 1995 d  175 1987 d  175 1979 d  178 1971 d  183 1969 d  188 1971 d
  191 1977 d  193 1990 d  196 1995 d  201 1997 d  204 1997 d  209 1995 d
  211 1987 d  211 1979 d  209 1971 d  204 1969 d  157 2016 r  201 2016 d
  209 2018 d  211 2023 d  211 2029 d  175 2008 r  175 2026 d  175 2039 r
  211 2039 d  191 2039 r  183 2042 d  178 2047 d  175 2052 d  175 2060 d
  175 2086 r  178 2081 d  183 2075 d  191 2073 d  196 2073 d  204 2075 d
  209 2081 d  211 2086 d  211 2094 d  209 2099 d  204 2104 d  196 2107 d
  191 2107 d  183 2104 d  178 2099 d  175 2094 d  175 2086 d  175 2122 r
  211 2122 d  185 2122 r  178 2130 d  175 2135 d  175 2143 d  178 2148 d
  185 2151 d  211 2151 d  157 2213 r  201 2213 d  209 2216 d  211 2221 d
  211 2226 d  175 2205 r  175 2224 d  157 2234 r  159 2237 d  157 2239 d
  154 2237 d  157 2234 d  175 2237 r  211 2237 d  175 2257 r  211 2257 d
  185 2257 r  178 2265 d  175 2270 d  175 2278 d  178 2283 d  185 2286 d
  211 2286 d  185 2286 r  178 2294 d  175 2299 d  175 2307 d  178 2312 d
  185 2315 d  211 2315 d  191 2333 r  191 2364 d  185 2364 d  180 2361 d
  178 2359 d  175 2354 d  175 2346 d  178 2341 d  183 2335 d  191 2333 d
  196 2333 d  204 2335 d  209 2341 d  211 2346 d  211 2354 d  209 2359 d
  204 2364 d  146 2442 r  152 2437 d  159 2432 d  170 2426 d  183 2424 d
  193 2424 d  206 2426 d  217 2432 d  224 2437 d  230 2442 d  183 2486 r
  178 2484 d  175 2476 d  175 2468 d  178 2460 d  183 2458 d  188 2460 d
  191 2465 d  193 2478 d  196 2484 d  201 2486 d  204 2486 d  209 2484 d
  211 2476 d  211 2468 d  209 2460 d  204 2458 d  146 2499 r  152 2504 d
  159 2510 d  170 2515 d  183 2517 d  193 2517 d  206 2515 d  217 2510 d
  224 2504 d  230 2499 d  604 2881 r  596 2881 d  606 2882 r  594 2882 d
  607 2883 r  593 2883 d  608 2884 r  592 2884 d  610 2885 r  590 2885 d
  610 2886 r  590 2886 d  610 2887 r  590 2887 d  611 2888 r  589 2888 d
  611 2889 r  589 2889 d  611 2890 r  589 2890 d  612 2891 r  588 2891 d
  612 2892 r  588 2892 d  612 2893 r  588 2893 d  611 2894 r  589 2894 d
  611 2895 r  589 2895 d  611 2896 r  589 2896 d  610 2897 r  590 2897 d
  610 2898 r  590 2898 d  610 2899 r  590 2899 d  608 2900 r  592 2900 d
  607 2901 r  593 2901 d  606 2902 r  594 2902 d  604 2903 r  596 2903 d
  613 2870 r  605 2870 d  615 2871 r  603 2871 d  616 2872 r  602 2872 d
  617 2873 r  601 2873 d  619 2874 r  599 2874 d  619 2875 r  599 2875 d
  619 2876 r  599 2876 d  620 2877 r  598 2877 d  620 2878 r  598 2878 d
  620 2879 r  598 2879 d  621 2880 r  597 2880 d  621 2881 r  597 2881 d
  621 2882 r  597 2882 d  620 2883 r  598 2883 d  620 2884 r  598 2884 d
  620 2885 r  598 2885 d  619 2886 r  599 2886 d  619 2887 r  599 2887 d
  619 2888 r  599 2888 d  617 2889 r  601 2889 d  616 2890 r  602 2890 d
  615 2891 r  603 2891 d  613 2892 r  605 2892 d  726 2848 r  718 2848 d
  728 2849 r  716 2849 d  729 2850 r  715 2850 d  730 2851 r  714 2851 d
  732 2852 r  712 2852 d  732 2853 r  712 2853 d  732 2854 r  712 2854 d
  733 2855 r  711 2855 d  733 2856 r  711 2856 d  733 2857 r  711 2857 d
  734 2858 r  710 2858 d  734 2859 r  710 2859 d  734 2860 r  710 2860 d
  733 2861 r  711 2861 d  733 2862 r  711 2862 d  733 2863 r  711 2863 d
  732 2864 r  712 2864 d  732 2865 r  712 2865 d  732 2866 r  712 2866 d
  730 2867 r  714 2867 d  729 2868 r  715 2868 d  728 2869 r  716 2869 d
  726 2870 r  718 2870 d  762 2863 r  754 2863 d  764 2864 r  752 2864 d
  765 2865 r  751 2865 d  766 2866 r  750 2866 d  768 2867 r  748 2867 d
  768 2868 r  748 2868 d  768 2869 r  748 2869 d  769 2870 r  747 2870 d
  769 2871 r  747 2871 d  769 2872 r  747 2872 d  770 2873 r  746 2873 d
  770 2874 r  746 2874 d  770 2875 r  746 2875 d  769 2876 r  747 2876 d
  769 2877 r  747 2877 d  769 2878 r  747 2878 d  768 2879 r  748 2879 d
  768 2880 r  748 2880 d  768 2881 r  748 2881 d  766 2882 r  750 2882 d
  765 2883 r  751 2883 d  764 2884 r  752 2884 d  762 2885 r  754 2885 d
  783 2833 r  775 2833 d  785 2834 r  773 2834 d  786 2835 r  772 2835 d
  787 2836 r  771 2836 d  789 2837 r  769 2837 d  789 2838 r  769 2838 d
  789 2839 r  769 2839 d  790 2840 r  768 2840 d  790 2841 r  768 2841 d
  790 2842 r  768 2842 d  791 2843 r  767 2843 d  791 2844 r  767 2844 d
  791 2845 r  767 2845 d  790 2846 r  768 2846 d  790 2847 r  768 2847 d
  790 2848 r  768 2848 d  789 2849 r  769 2849 d  789 2850 r  769 2850 d
  789 2851 r  769 2851 d  787 2852 r  771 2852 d  786 2853 r  772 2853 d
  785 2854 r  773 2854 d  783 2855 r  775 2855 d  799 2842 r  791 2842 d
  801 2843 r  789 2843 d  802 2844 r  788 2844 d  803 2845 r  787 2845 d
  805 2846 r  785 2846 d  805 2847 r  785 2847 d  805 2848 r  785 2848 d
  806 2849 r  784 2849 d  806 2850 r  784 2850 d  806 2851 r  784 2851 d
  807 2852 r  783 2852 d  807 2853 r  783 2853 d  807 2854 r  783 2854 d
  806 2855 r  784 2855 d  806 2856 r  784 2856 d  806 2857 r  784 2857 d
  805 2858 r  785 2858 d  805 2859 r  785 2859 d  805 2860 r  785 2860 d
  803 2861 r  787 2861 d  802 2862 r  788 2862 d  801 2863 r  789 2863 d
  799 2864 r  791 2864 d  809 2834 r  801 2834 d  811 2835 r  799 2835 d
  812 2836 r  798 2836 d  813 2837 r  797 2837 d  815 2838 r  795 2838 d
  815 2839 r  795 2839 d  815 2840 r  795 2840 d  816 2841 r  794 2841 d
  816 2842 r  794 2842 d  816 2843 r  794 2843 d  817 2844 r  793 2844 d
  817 2845 r  793 2845 d  817 2846 r  793 2846 d  816 2847 r  794 2847 d
  816 2848 r  794 2848 d  816 2849 r  794 2849 d  815 2850 r  795 2850 d
  815 2851 r  795 2851 d  815 2852 r  795 2852 d  813 2853 r  797 2853 d
  812 2854 r  798 2854 d  811 2855 r  799 2855 d  809 2856 r  801 2856 d
  831 2831 r  823 2831 d  833 2832 r  821 2832 d  834 2833 r  820 2833 d
  835 2834 r  819 2834 d  837 2835 r  817 2835 d  837 2836 r  817 2836 d
  837 2837 r  817 2837 d  838 2838 r  816 2838 d  838 2839 r  816 2839 d
  838 2840 r  816 2840 d  839 2841 r  815 2841 d  839 2842 r  815 2842 d
  839 2843 r  815 2843 d  838 2844 r  816 2844 d  838 2845 r  816 2845 d
  838 2846 r  816 2846 d  837 2847 r  817 2847 d  837 2848 r  817 2848 d
  837 2849 r  817 2849 d  835 2850 r  819 2850 d  834 2851 r  820 2851 d
  833 2852 r  821 2852 d  831 2853 r  823 2853 d  859 2816 r  851 2816 d
  861 2817 r  849 2817 d  862 2818 r  848 2818 d  863 2819 r  847 2819 d
  865 2820 r  845 2820 d  865 2821 r  845 2821 d  865 2822 r  845 2822 d
  866 2823 r  844 2823 d  866 2824 r  844 2824 d  866 2825 r  844 2825 d
  867 2826 r  843 2826 d  867 2827 r  843 2827 d  867 2828 r  843 2828 d
  866 2829 r  844 2829 d  866 2830 r  844 2830 d  866 2831 r  844 2831 d
  865 2832 r  845 2832 d  865 2833 r  845 2833 d  865 2834 r  845 2834 d
  863 2835 r  847 2835 d  862 2836 r  848 2836 d  861 2837 r  849 2837 d
  859 2838 r  851 2838 d  904 2791 r  896 2791 d  906 2792 r  894 2792 d
  907 2793 r  893 2793 d  908 2794 r  892 2794 d  910 2795 r  890 2795 d
  910 2796 r  890 2796 d  910 2797 r  890 2797 d  911 2798 r  889 2798 d
  911 2799 r  889 2799 d  911 2800 r  889 2800 d  912 2801 r  888 2801 d
  912 2802 r  888 2802 d  912 2803 r  888 2803 d  911 2804 r  889 2804 d
  911 2805 r  889 2805 d  911 2806 r  889 2806 d  910 2807 r  890 2807 d
  910 2808 r  890 2808 d  910 2809 r  890 2809 d  908 2810 r  892 2810 d
  907 2811 r  893 2811 d  906 2812 r  894 2812 d  904 2813 r  896 2813 d
  931 2782 r  923 2782 d  933 2783 r  921 2783 d  934 2784 r  920 2784 d
  935 2785 r  919 2785 d  937 2786 r  917 2786 d  937 2787 r  917 2787 d
  937 2788 r  917 2788 d  938 2789 r  916 2789 d  938 2790 r  916 2790 d
  938 2791 r  916 2791 d  939 2792 r  915 2792 d  939 2793 r  915 2793 d
  939 2794 r  915 2794 d  938 2795 r  916 2795 d  938 2796 r  916 2796 d
  938 2797 r  916 2797 d  937 2798 r  917 2798 d  937 2799 r  917 2799 d
  937 2800 r  917 2800 d  935 2801 r  919 2801 d  934 2802 r  920 2802 d
  933 2803 r  921 2803 d  931 2804 r  923 2804 d  962 2765 r  954 2765 d
  964 2766 r  952 2766 d  965 2767 r  951 2767 d  966 2768 r  950 2768 d
  968 2769 r  948 2769 d  968 2770 r  948 2770 d  968 2771 r  948 2771 d
  969 2772 r  947 2772 d  969 2773 r  947 2773 d  969 2774 r  947 2774 d
  970 2775 r  946 2775 d  970 2776 r  946 2776 d  970 2777 r  946 2777 d
  969 2778 r  947 2778 d  969 2779 r  947 2779 d  969 2780 r  947 2780 d
  968 2781 r  948 2781 d  968 2782 r  948 2782 d  968 2783 r  948 2783 d
  966 2784 r  950 2784 d  965 2785 r  951 2785 d  964 2786 r  952 2786 d
  962 2787 r  954 2787 d 1006 2740 r  998 2740 d 1008 2741 r  996 2741 d
 1009 2742 r  995 2742 d 1010 2743 r  994 2743 d 1012 2744 r  992 2744 d
 1012 2745 r  992 2745 d 1012 2746 r  992 2746 d 1013 2747 r  991 2747 d
 1013 2748 r  991 2748 d 1013 2749 r  991 2749 d 1014 2750 r  990 2750 d
 1014 2751 r  990 2751 d 1014 2752 r  990 2752 d 1013 2753 r  991 2753 d
 1013 2754 r  991 2754 d 1013 2755 r  991 2755 d 1012 2756 r  992 2756 d
 1012 2757 r  992 2757 d 1012 2758 r  992 2758 d 1010 2759 r  994 2759 d
 1009 2760 r  995 2760 d 1008 2761 r  996 2761 d 1006 2762 r  998 2762 d
 1042 2715 r 1034 2715 d 1044 2716 r 1032 2716 d 1045 2717 r 1031 2717 d
 1046 2718 r 1030 2718 d 1048 2719 r 1028 2719 d 1048 2720 r 1028 2720 d
 1048 2721 r 1028 2721 d 1049 2722 r 1027 2722 d 1049 2723 r 1027 2723 d
 1049 2724 r 1027 2724 d 1050 2725 r 1026 2725 d 1050 2726 r 1026 2726 d
 1050 2727 r 1026 2727 d 1049 2728 r 1027 2728 d 1049 2729 r 1027 2729 d
 1049 2730 r 1027 2730 d 1048 2731 r 1028 2731 d 1048 2732 r 1028 2732 d
 1048 2733 r 1028 2733 d 1046 2734 r 1030 2734 d 1045 2735 r 1031 2735 d
 1044 2736 r 1032 2736 d 1042 2737 r 1034 2737 d 1098 2672 r 1090 2672 d
 1100 2673 r 1088 2673 d 1101 2674 r 1087 2674 d 1102 2675 r 1086 2675 d
 1104 2676 r 1084 2676 d 1104 2677 r 1084 2677 d 1104 2678 r 1084 2678 d
 1105 2679 r 1083 2679 d 1105 2680 r 1083 2680 d 1105 2681 r 1083 2681 d
 1106 2682 r 1082 2682 d 1106 2683 r 1082 2683 d 1106 2684 r 1082 2684 d
 1105 2685 r 1083 2685 d 1105 2686 r 1083 2686 d 1105 2687 r 1083 2687 d
 1104 2688 r 1084 2688 d 1104 2689 r 1084 2689 d 1104 2690 r 1084 2690 d
 1102 2691 r 1086 2691 d 1101 2692 r 1087 2692 d 1100 2693 r 1088 2693 d
 1098 2694 r 1090 2694 d 1152 2628 r 1144 2628 d 1154 2629 r 1142 2629 d
 1155 2630 r 1141 2630 d 1156 2631 r 1140 2631 d 1158 2632 r 1138 2632 d
 1158 2633 r 1138 2633 d 1158 2634 r 1138 2634 d 1159 2635 r 1137 2635 d
 1159 2636 r 1137 2636 d 1159 2637 r 1137 2637 d 1160 2638 r 1136 2638 d
 1160 2639 r 1136 2639 d 1160 2640 r 1136 2640 d 1159 2641 r 1137 2641 d
 1159 2642 r 1137 2642 d 1159 2643 r 1137 2643 d 1158 2644 r 1138 2644 d
 1158 2645 r 1138 2645 d 1158 2646 r 1138 2646 d 1156 2647 r 1140 2647 d
 1155 2648 r 1141 2648 d 1154 2649 r 1142 2649 d 1152 2650 r 1144 2650 d
 1208 2577 r 1200 2577 d 1210 2578 r 1198 2578 d 1211 2579 r 1197 2579 d
 1212 2580 r 1196 2580 d 1214 2581 r 1194 2581 d 1214 2582 r 1194 2582 d
 1214 2583 r 1194 2583 d 1215 2584 r 1193 2584 d 1215 2585 r 1193 2585 d
 1215 2586 r 1193 2586 d 1216 2587 r 1192 2587 d 1216 2588 r 1192 2588 d
 1216 2589 r 1192 2589 d 1215 2590 r 1193 2590 d 1215 2591 r 1193 2591 d
 1215 2592 r 1193 2592 d 1214 2593 r 1194 2593 d 1214 2594 r 1194 2594 d
 1214 2595 r 1194 2595 d 1212 2596 r 1196 2596 d 1211 2597 r 1197 2597 d
 1210 2598 r 1198 2598 d 1208 2599 r 1200 2599 d 1302 2477 r 1294 2477 d
 1304 2478 r 1292 2478 d 1305 2479 r 1291 2479 d 1306 2480 r 1290 2480 d
 1308 2481 r 1288 2481 d 1308 2482 r 1288 2482 d 1308 2483 r 1288 2483 d
 1309 2484 r 1287 2484 d 1309 2485 r 1287 2485 d 1309 2486 r 1287 2486 d
 1310 2487 r 1286 2487 d 1310 2488 r 1286 2488 d 1310 2489 r 1286 2489 d
 1309 2490 r 1287 2490 d 1309 2491 r 1287 2491 d 1309 2492 r 1287 2492 d
 1308 2493 r 1288 2493 d 1308 2494 r 1288 2494 d 1308 2495 r 1288 2495 d
 1306 2496 r 1290 2496 d 1305 2497 r 1291 2497 d 1304 2498 r 1292 2498 d
 1302 2499 r 1294 2499 d 1378 2385 r 1370 2385 d 1380 2386 r 1368 2386 d
 1381 2387 r 1367 2387 d 1382 2388 r 1366 2388 d 1384 2389 r 1364 2389 d
 1384 2390 r 1364 2390 d 1384 2391 r 1364 2391 d 1385 2392 r 1363 2392 d
 1385 2393 r 1363 2393 d 1385 2394 r 1363 2394 d 1386 2395 r 1362 2395 d
 1386 2396 r 1362 2396 d 1386 2397 r 1362 2397 d 1385 2398 r 1363 2398 d
 1385 2399 r 1363 2399 d 1385 2400 r 1363 2400 d 1384 2401 r 1364 2401 d
 1384 2402 r 1364 2402 d 1384 2403 r 1364 2403 d 1382 2404 r 1366 2404 d
 1381 2405 r 1367 2405 d 1380 2406 r 1368 2406 d 1378 2407 r 1370 2407 d
 1438 2308 r 1430 2308 d 1440 2309 r 1428 2309 d 1441 2310 r 1427 2310 d
 1442 2311 r 1426 2311 d 1444 2312 r 1424 2312 d 1444 2313 r 1424 2313 d
 1444 2314 r 1424 2314 d 1445 2315 r 1423 2315 d 1445 2316 r 1423 2316 d
 1445 2317 r 1423 2317 d 1446 2318 r 1422 2318 d 1446 2319 r 1422 2319 d
 1446 2320 r 1422 2320 d 1445 2321 r 1423 2321 d 1445 2322 r 1423 2322 d
 1445 2323 r 1423 2323 d 1444 2324 r 1424 2324 d 1444 2325 r 1424 2325 d
 1444 2326 r 1424 2326 d 1442 2327 r 1426 2327 d 1441 2328 r 1427 2328 d
 1440 2329 r 1428 2329 d 1438 2330 r 1430 2330 d 1513 2203 r 1505 2203 d
 1515 2204 r 1503 2204 d 1516 2205 r 1502 2205 d 1517 2206 r 1501 2206 d
 1519 2207 r 1499 2207 d 1519 2208 r 1499 2208 d 1519 2209 r 1499 2209 d
 1520 2210 r 1498 2210 d 1520 2211 r 1498 2211 d 1520 2212 r 1498 2212 d
 1521 2213 r 1497 2213 d 1521 2214 r 1497 2214 d 1521 2215 r 1497 2215 d
 1520 2216 r 1498 2216 d 1520 2217 r 1498 2217 d 1520 2218 r 1498 2218 d
 1519 2219 r 1499 2219 d 1519 2220 r 1499 2220 d 1519 2221 r 1499 2221 d
 1517 2222 r 1501 2222 d 1516 2223 r 1502 2223 d 1515 2224 r 1503 2224 d
 1513 2225 r 1505 2225 d 1590 2083 r 1582 2083 d 1592 2084 r 1580 2084 d
 1593 2085 r 1579 2085 d 1594 2086 r 1578 2086 d 1596 2087 r 1576 2087 d
 1596 2088 r 1576 2088 d 1596 2089 r 1576 2089 d 1597 2090 r 1575 2090 d
 1597 2091 r 1575 2091 d 1597 2092 r 1575 2092 d 1598 2093 r 1574 2093 d
 1598 2094 r 1574 2094 d 1598 2095 r 1574 2095 d 1597 2096 r 1575 2096 d
 1597 2097 r 1575 2097 d 1597 2098 r 1575 2098 d 1596 2099 r 1576 2099 d
 1596 2100 r 1576 2100 d 1596 2101 r 1576 2101 d 1594 2102 r 1578 2102 d
 1593 2103 r 1579 2103 d 1592 2104 r 1580 2104 d 1590 2105 r 1582 2105 d
 1944 1417 r 1936 1417 d 1946 1418 r 1934 1418 d 1947 1419 r 1933 1419 d
 1948 1420 r 1932 1420 d 1950 1421 r 1930 1421 d 1950 1422 r 1930 1422 d
 1950 1423 r 1930 1423 d 1951 1424 r 1929 1424 d 1951 1425 r 1929 1425 d
 1951 1426 r 1929 1426 d 1952 1427 r 1928 1427 d 1952 1428 r 1928 1428 d
 1952 1429 r 1928 1429 d 1951 1430 r 1929 1430 d 1951 1431 r 1929 1431 d
 1951 1432 r 1929 1432 d 1950 1433 r 1930 1433 d 1950 1434 r 1930 1434 d
 1950 1435 r 1930 1435 d 1948 1436 r 1932 1436 d 1947 1437 r 1933 1437 d
 1946 1438 r 1934 1438 d 1944 1439 r 1936 1439 d 1999 1296 r 1991 1296 d
 2001 1297 r 1989 1297 d 2002 1298 r 1988 1298 d 2003 1299 r 1987 1299 d
 2005 1300 r 1985 1300 d 2005 1301 r 1985 1301 d 2005 1302 r 1985 1302 d
 2006 1303 r 1984 1303 d 2006 1304 r 1984 1304 d 2006 1305 r 1984 1305 d
 2007 1306 r 1983 1306 d 2007 1307 r 1983 1307 d 2007 1308 r 1983 1308 d
 2006 1309 r 1984 1309 d 2006 1310 r 1984 1310 d 2006 1311 r 1984 1311 d
 2005 1312 r 1985 1312 d 2005 1313 r 1985 1313 d 2005 1314 r 1985 1314 d
 2003 1315 r 1987 1315 d 2002 1316 r 1988 1316 d 2001 1317 r 1989 1317 d
 1999 1318 r 1991 1318 d 2115 1022 r 2107 1022 d 2117 1023 r 2105 1023 d
 2118 1024 r 2104 1024 d 2119 1025 r 2103 1025 d 2121 1026 r 2101 1026 d
 2121 1027 r 2101 1027 d 2121 1028 r 2101 1028 d 2122 1029 r 2100 1029 d
 2122 1030 r 2100 1030 d 2122 1031 r 2100 1031 d 2123 1032 r 2099 1032 d
 2123 1033 r 2099 1033 d 2123 1034 r 2099 1034 d 2122 1035 r 2100 1035 d
 2122 1036 r 2100 1036 d 2122 1037 r 2100 1037 d 2121 1038 r 2101 1038 d
 2121 1039 r 2101 1039 d 2121 1040 r 2101 1040 d 2119 1041 r 2103 1041 d
 2118 1042 r 2104 1042 d 2117 1043 r 2105 1043 d 2115 1044 r 2107 1044 d
 2217  760 r 2209  760 d 2219  761 r 2207  761 d 2220  762 r 2206  762 d
 2221  763 r 2205  763 d 2223  764 r 2203  764 d 2223  765 r 2203  765 d
 2223  766 r 2203  766 d 2224  767 r 2202  767 d 2224  768 r 2202  768 d
 2224  769 r 2202  769 d 2225  770 r 2201  770 d 2225  771 r 2201  771 d
 2225  772 r 2201  772 d 2224  773 r 2202  773 d 2224  774 r 2202  774 d
 2224  775 r 2202  775 d 2223  776 r 2203  776 d 2223  777 r 2203  777 d
 2223  778 r 2203  778 d 2221  779 r 2205  779 d 2220  780 r 2206  780 d
 2219  781 r 2207  781 d 2217  782 r 2209  782 d  600 2892 r  600 2907 d
  619 2907 r  581 2907 d  619 2907 d  609 2881 r  609 2893 d  628 2893 r
  590 2893 d  628 2893 d  722 2859 r  722 2869 d  741 2869 r  703 2869 d
  741 2869 d  758 2874 r  758 2883 d  777 2883 r  739 2883 d  777 2883 d
  779 2844 r  779 2850 d  798 2850 r  760 2850 d  798 2850 d  795 2853 r
  795 2856 d  814 2856 r  776 2856 d  814 2856 d  805 2845 r  805 2855 d
  824 2855 r  786 2855 d  824 2855 d  827 2842 r  827 2846 d  846 2846 r
  808 2846 d  846 2846 d  855 2827 r  855 2831 d  874 2831 r  836 2831 d
  874 2831 d  900 2802 r  900 2805 d  919 2805 r  881 2805 d  919 2805 d
  927 2793 r  927 2796 d  946 2796 r  908 2796 d  946 2796 d  958 2776 r
  958 2777 d  977 2777 r  939 2777 d  977 2777 d 1002 2751 p 1021 2751 r
  983 2751 d 1021 2751 d 1038 2726 p 1057 2726 r 1019 2726 d 1057 2726 d
 1094 2683 r 1094 2684 d 1113 2684 r 1075 2684 d 1113 2684 d 1148 2639 r
 1148 2640 d 1167 2640 r 1129 2640 d 1167 2640 d 1204 2588 r 1204 2590 d
 1223 2590 r 1185 2590 d 1223 2590 d 1298 2488 r 1298 2489 d 1317 2489 r
 1279 2489 d 1317 2489 d 1374 2396 r 1374 2397 d 1393 2397 r 1355 2397 d
 1393 2397 d 1434 2319 r 1434 2320 d 1453 2320 r 1415 2320 d 1453 2320 d
 1509 2214 p 1528 2214 r 1490 2214 d 1528 2214 d 1586 2094 r 1586 2095 d
 1605 2095 r 1567 2095 d 1605 2095 d 1940 1428 r 1940 1429 d 1959 1429 r
 1921 1429 d 1959 1429 d 1995 1307 r 1995 1308 d 2014 1308 r 1976 1308 d
 2014 1308 d 2111 1033 r 2111 1034 d 2130 1034 r 2092 1034 d 2130 1034 d
 2213  771 r 2213  773 d 2232  773 r 2194  773 d 2232  773 d  600 2892 r
  600 2876 d  619 2876 r  581 2876 d  619 2876 d  609 2881 r  609 2869 d
  628 2869 r  590 2869 d  628 2869 d  722 2859 r  722 2849 d  741 2849 r
  703 2849 d  741 2849 d  758 2874 r  758 2865 d  777 2865 r  739 2865 d
  777 2865 d  779 2844 r  779 2838 d  798 2838 r  760 2838 d  798 2838 d
  795 2853 r  795 2850 d  814 2850 r  776 2850 d  814 2850 d  805 2845 r
  805 2836 d  824 2836 r  786 2836 d  824 2836 d  827 2842 r  827 2837 d
  846 2837 r  808 2837 d  846 2837 d  855 2827 r  855 2823 d  874 2823 r
  836 2823 d  874 2823 d  900 2802 r  900 2798 d  919 2798 r  881 2798 d
  919 2798 d  927 2793 r  927 2789 d  946 2789 r  908 2789 d  946 2789 d
  958 2776 r  958 2775 d  977 2775 r  939 2775 d  977 2775 d 1002 2751 r
 1002 2750 d 1021 2750 r  983 2750 d 1021 2750 d 1038 2726 r 1038 2725 d
 1057 2725 r 1019 2725 d 1057 2725 d 1094 2683 p 1113 2683 r 1075 2683 d
 1113 2683 d 1148 2639 r 1148 2638 d 1167 2638 r 1129 2638 d 1167 2638 d
 1204 2588 r 1204 2586 d 1223 2586 r 1185 2586 d 1223 2586 d 1298 2488 r
 1298 2486 d 1317 2486 r 1279 2486 d 1317 2486 d 1374 2396 r 1374 2395 d
 1393 2395 r 1355 2395 d 1393 2395 d 1434 2319 r 1434 2318 d 1453 2318 r
 1415 2318 d 1453 2318 d 1509 2214 r 1509 2213 d 1528 2213 r 1490 2213 d
 1528 2213 d 1586 2094 r 1586 2093 d 1605 2093 r 1567 2093 d 1605 2093 d
 1940 1428 r 1940 1427 d 1959 1427 r 1921 1427 d 1959 1427 d 1995 1307 p
 2014 1307 r 1976 1307 d 2014 1307 d 2111 1033 r 2111 1032 d 2130 1032 r
 2092 1032 d 2130 1032 d 2213  771 r 2213  770 d 2232  770 r 2194  770 d
 2232  770 d  500 2881 r 2300 2881 d  601 2881 r  613 2881 d  624 2880 d
  635 2880 d  646 2879 d  658 2878 d  669 2877 d  680 2876 d  691 2874 d
  702 2872 d  714 2870 d  725 2868 d  736 2866 d  748 2863 d  759 2860 d
  770 2857 d  781 2854 d  792 2851 d  804 2847 d  815 2843 d  826 2839 d
  838 2835 d  849 2830 d  860 2826 d  871 2821 d  883 2816 d  894 2811 d
  905 2805 d  916 2799 d  927 2794 d  939 2788 d  950 2781 d  961 2775 d
  973 2768 d  984 2761 d  995 2754 d 1006 2747 d 1017 2739 d 1029 2732 d
 1040 2724 d 1051 2716 d 1063 2707 d 1074 2699 d 1085 2690 d 1096 2681 d
 1108 2672 d 1119 2663 d 1130 2653 d 1141 2643 d 1152 2633 d 1164 2623 d
 1175 2613 d 1186 2602 d 1198 2591 d 1209 2580 d 1220 2569 d 1231 2558 d
 1242 2546 d 1254 2535 d 1265 2523 d 1276 2510 d 1288 2498 d 1299 2485 d
 1310 2473 d 1321 2460 d 1333 2446 d 1344 2433 d 1355 2419 d 1366 2405 d
 1377 2391 d 1389 2377 d 1400 2363 d 1411 2348 d 1423 2333 d 1434 2318 d
 1445 2303 d 1456 2287 d 1467 2272 d 1479 2256 d 1490 2240 d 1501 2224 d
 1513 2207 d 1524 2190 d 1535 2173 d 1546 2156 d 1558 2139 d 1569 2122 d
 1580 2104 d 1591 2086 d 1602 2068 d 1614 2049 d 1625 2031 d 1636 2012 d
 1648 1993 d 1659 1974 d 1670 1955 d 1681 1935 d 1692 1916 d 1704 1896 d
 1715 1875 d 1726 1855 d 1738 1834 d 1749 1814 d 1760 1793 d 1771 1772 d
 1783 1750 d 1794 1729 d 1805 1707 d 1816 1685 d 1827 1663 d 1839 1640 d
 1850 1618 d 1861 1595 d 1873 1572 d 1884 1549 d 1895 1525 d 1906 1501 d
 1917 1478 d 1929 1454 d 1940 1429 d 1951 1405 d 1963 1380 d 1974 1355 d
 1985 1330 d 1996 1305 d 2008 1280 d 2019 1254 d 2030 1228 d 2041 1202 d
 2052 1176 d 2064 1149 d 2075 1123 d 2086 1096 d 2098 1069 d 2109 1041 d
 2120 1014 d 2131  986 d 2142  958 d 2154  930 d 2165  902 d 2176  873 d
 2188  844 d 2199  816 d 2210  786 d 2221  757 d 2233  727 d 2244  698 d
 2255  668 d 2266  638 d 2277  607 d 2289  577 d 2300  546 d 1569 1601 r
 1749 1750 d  652 1616 r  649 1621 d  645 1625 d  641 1627 d  632 1627 d
  627 1625 d  623 1621 d  621 1616 d  619 1610 d  619 1599 d  621 1592 d
  623 1588 d  627 1583 d  632 1581 d  641 1581 d  645 1583 d  649 1588 d
  652 1592 d  652 1599 d  641 1599 r  652 1599 d  663 1599 r  689 1599 d
  689 1603 d  687 1608 d  685 1610 d  680 1612 d  674 1612 d  669 1610 d
  665 1605 d  663 1599 d  663 1594 d  665 1588 d  669 1583 d  674 1581 d
  680 1581 d  685 1583 d  689 1588 d  704 1612 r  704 1581 d  704 1603 r
  711 1610 d  715 1612 d  722 1612 d  726 1610 d  729 1603 d  729 1581 d
  742 1599 r  768 1599 d  768 1603 d  766 1608 d  764 1610 d  759 1612 d
  753 1612 d  748 1610 d  744 1605 d  742 1599 d  742 1594 d  744 1588 d
  748 1583 d  753 1581 d  759 1581 d  764 1583 d  768 1588 d  784 1612 r
  784 1581 d  784 1599 r  786 1605 d  790 1610 d  795 1612 d  801 1612 d
  839 1612 r  839 1581 d  839 1605 r  834 1610 d  830 1612 d  823 1612 d
  819 1610 d  814 1605 d  812 1599 d  812 1594 d  814 1588 d  819 1583 d
  823 1581 d  830 1581 d  834 1583 d  839 1588 d  854 1627 r  854 1581 d
  907 1627 r  907 1581 d  907 1627 r  927 1627 d  933 1625 d  935 1623 d
  938 1619 d  938 1614 d  935 1610 d  933 1608 d  927 1605 d  907 1605 d
  922 1605 r  938 1581 d  953 1599 r  979 1599 d  979 1603 d  977 1608 d
  975 1610 d  971 1612 d  964 1612 d  960 1610 d  955 1605 d  953 1599 d
  953 1594 d  955 1588 d  960 1583 d  964 1581 d  971 1581 d  975 1583 d
  979 1588 d  995 1627 r  995 1581 d 1037 1612 r 1037 1581 d 1037 1605 r
 1032 1610 d 1028 1612 d 1021 1612 d 1017 1610 d 1012 1605 d 1010 1599 d
 1010 1594 d 1012 1588 d 1017 1583 d 1021 1581 d 1028 1581 d 1032 1583 d
 1037 1588 d 1054 1627 r 1054 1590 d 1056 1583 d 1061 1581 d 1065 1581 d
 1048 1612 r 1063 1612 d 1072 1627 r 1074 1625 d 1076 1627 d 1074 1630 d
 1072 1627 d 1074 1612 r 1074 1581 d 1087 1612 r 1100 1581 d 1114 1612 r
 1100 1581 d 1125 1627 r 1127 1625 d 1129 1627 d 1127 1630 d 1125 1627 d
 1127 1612 r 1127 1581 d 1147 1627 r 1147 1590 d 1149 1583 d 1153 1581 d
 1158 1581 d 1140 1612 r 1155 1612 d 1162 1612 r 1175 1581 d 1188 1612 r
 1175 1581 d 1171 1572 d 1166 1568 d 1162 1566 d 1160 1566 d 1237 1612 r
 1237 1566 d 1237 1605 r 1241 1610 d 1246 1612 d 1252 1612 d 1257 1610 d
 1261 1605 d 1263 1599 d 1263 1594 d 1261 1588 d 1257 1583 d 1252 1581 d
 1246 1581 d 1241 1583 d 1237 1588 d 1281 1612 r 1281 1581 d 1281 1599 r
 1283 1605 d 1287 1610 d 1292 1612 d 1298 1612 d 1309 1599 r 1336 1599 d
 1336 1603 d 1334 1608 d 1331 1610 d 1327 1612 d 1320 1612 d 1316 1610 d
 1312 1605 d 1309 1599 d 1309 1594 d 1312 1588 d 1316 1583 d 1320 1581 d
 1327 1581 d 1331 1583 d 1336 1588 d 1375 1627 r 1375 1581 d 1375 1605 r
 1371 1610 d 1367 1612 d 1360 1612 d 1356 1610 d 1351 1605 d 1349 1599 d
 1349 1594 d 1351 1588 d 1356 1583 d 1360 1581 d 1367 1581 d 1371 1583 d
 1375 1588 d 1389 1627 r 1391 1625 d 1393 1627 d 1391 1630 d 1389 1627 d
 1391 1612 r 1391 1581 d 1433 1605 r 1428 1610 d 1424 1612 d 1417 1612 d
 1413 1610 d 1408 1605 d 1406 1599 d 1406 1594 d 1408 1588 d 1413 1583 d
 1417 1581 d 1424 1581 d 1428 1583 d 1433 1588 d 1450 1627 r 1450 1590 d
 1452 1583 d 1457 1581 d 1461 1581 d 1444 1612 r 1459 1612 d 1468 1627 r
 1470 1625 d 1472 1627 d 1470 1630 d 1468 1627 d 1470 1612 r 1470 1581 d
 1496 1612 r 1492 1610 d 1488 1605 d 1485 1599 d 1485 1594 d 1488 1588 d
 1492 1583 d 1496 1581 d 1503 1581 d 1507 1583 d 1512 1588 d 1514 1594 d
 1514 1599 d 1512 1605 d 1507 1610 d 1503 1612 d 1496 1612 d 1527 1612 r
 1527 1581 d 1527 1603 r 1534 1610 d 1538 1612 d 1545 1612 d 1549 1610 d
 1551 1603 d 1551 1581 d
e
%%Trailer
EndPSPlot
